[134.43,-12.674,33.9719];[127.75,49.3977,-36.2938];[53.6356,32.1876,-26.667];[88.6352,-2.71235,15.4645];[58.3655,1.60811,54.2676];[146.591,16.2854,26.0756];[22.6564,12.8363,-58.0439];[38.8619,-43.5322,36.5012];[25.0687,-11.8867,-44.4251];[17.4094,59.8709,-33.8092];[82.0692,40.6935,13.5168];[47.3651,16.5063,2.91446];[78.9733,56.733,-24.898];[123.417,3.2094,32.3897];[64.0366,46.9835,-26.0022];[56.3933,36.9269,50.2832]
[11.1608,53.9192,3.11945];[13.7689,-36.9343,19.5872];[142.437,-18.1329,-52.2994];[3.20369,-5.07579,-52.4285];[38.1248,56.4761,48.265];[136.147,-28.0001,4.77124];[60.0331,31.2298,1.50425];[106.836,3.79277,-55.2864];[70.022,51.8202,51.6972];[115.352,-25.8848,28.6241];[102.397,-17.5142,22.5434];[26.5559,-7.18746,45.609];[132.672,-20.3595,-32.5238];[142.94,-17.9568,22.4004];[153.035,10.6368,18.8765];[137.388,-7.25281,50.8764]
[63.7499,37.772,22.1062];[145.756,-2.10112,-34.101];[152.04,50.4154,-42.2808];[140.97,16.9297,-8.16559];[99.1354,-26.2729,34.3203];[49.1933,-6.35597,-32.8672];[30.0053,-26.8518,6.77325];[66.6402,-39.6471,48.8165];[16.5074,-44.871,-0.546715];[121.676,58.1702,52.2005];[109.511,-14.0174,29.9725];[58.9862,-24.7008,-32.1286];[93.5182,-30.6705,-41.7132];[117.144,-44.943,35.2164];[26.2563,29.4086,-51.0564];[152.017,-53.6965,2.5876]
[28.1937,-31.1925,35.7358];[117.225,18.7876,56.0886];[102.313,31.1682,-48.7823];[21.5844,2.42521,-50.6121];[11.185,-35.4414,-4.62954];[131.148,8.79823,30.6697];[8.31021,-41.0631,59.9992];[32.6926,46.7947,-44.9438];[159.648,-53.5131,44.4648];[11.5726,-59.5006,50.7683];[95.0227,-38.3553,-40.4242];[62.6704,49.5632,38.3634];[57.4553,6.2982,9.5316];[72.4121,22.4865,-48.0432];[84.9293,30.8753,-23.4846];[158.757,9.23653,45.3137]
[119.649,15.4692,-55.7495];[119.648,39.9886,51.0452];[139.723,39.7245,57.5321];[119.01,48.404,58.0315];[106.701,-0.328979,-40.3238];[132.802,46.6739,-50.7606];[103.953,-30.2347,15.5376];[36.6619,24.0744,-21.9759];[52.6043,-32.2286,-51.1007];[101.292,-33.1612,18.1358];[81.7098,56.5759,-26.395];[87.3771,26.3122,-46.4063];[75.4373,11.1048,53.3182];[72.1468,-19.6379,41.7221];[69.5221,-59.6122,-18.6068];[95.757,39.9892,-31.933]
[108.076,-2.04597,-2.1677];[48.7929,25.4505,-38.0933];[99.4917,-55.0963,-10.322];[111.357,20.8724,16.5168];[55.5385,-37.8453,13.0927];[100.345,27.6875,-20.5951];[118.47,-35.7345,50.5097];[109.561,18.3756,-29.1281];[85.1906,-49.4828,-28.7404];[140.381,22.335,-48.7512];[17.8041,-16.6079,9.20286];[94.9138,19.9868,-25.3467];[124.123,-25.3945,-20.443];[30.3602,58.1236,-59.5706];[132.383,-20.2225,-37.4159];[69.8395,55.0364,50.2717]
[122.379,23.889,-45.4628];[109.726,-13.9402,32.9128];[150.888,49.9528,43.4301];[32.5677,35.2388,5.76505];[47.5662,48.5919,49.1572];[139.837,-0.222733,9.14394];[26.0411,-27.1307,43.7495];[78.7838,-4.36054,41.8731];[79.3564,-25.0736,-38.3495];[109.469,27.306,-43.313];[96.4974,-0.909393,40.576];[115.88,-38.6151,-33.3641];[79.7641,-45.4489,-43.4114];[57.6708,-21.0232,51.8274];[145.358,14.6515,40.4193];[130.9,-0.471069,-19.8034]
[63.0923,19.0597,13.0659];[41.425,-41.8524,-51.2946];[17.2557,17.6649,-16.3682];[46.1231,-20.2337,-49.0622];[68.3724,52.1394,10.0284];[42.4738,19.0496,31.4133];[77.9883,-41.1273,45.9644];[100.106,2.12577,-35.0588];[89.2097,-8.85608,39.5927];[63.1021,-30.6808,-20.8784];[116.698,16.6385,58.1814];[54.1189,47.7072,-43.671];[65.7261,-59.351,33.9938];[123.902,-24.7586,-46.2399];[138.486,26.5207,-54.1005];[71.8568,58.3761,24.9491]
[33.7413,-3.13272,43.8217];[15.0271,-48.0529,-14.0525];[48.2821,18.8544,37.0914];[21.0723,-53.819,-53.5893];[73.2345,33.7042,23.0492];[70.8096,-45.7066,10.7564];[92.5816,3.58791,11.4054];[57.9067,-23.4857,46.6468];[76.2535,-39.6216,13.1675];[84.1195,14.271,11.5435];[37.385,39.577,-51.5892];[15.814,50.8473,-39.6421];[77.0773,-32.9411,39.2123];[46.5326,-17.1368,45.3933];[55.0802,37.789,19.0975];[5.81238,-29.1037,33.3909]
[100.154,40.3325,-23.0212];[35.3615,-36.2375,13.493];[17.5572,20.9526,33.8715];[115.114,-35.9577,-11.8575];[50.5053,-7.91897,-32.2805];[61.7197,3.94152,-41.4331];[88.8636,-58.2505,-14.3742];[61.1467,-23.351,28.4889];[41.6712,17.9591,6.27796];[147.135,22.3184,37.1742];[111.656,-22.5659,17.5067];[0.960764,3.95518,41.2692];[98.9515,17.1231,2.22179];[64.1134,-16.5415,26.2641];[128.303,21.3375,-41.6549];[5.26282,-52.3727,22.2866]
[30.0186,14.275,24.0361];[90.853,-59.8649,-59.3149];[48.8382,-28.6116,18.6442];[137.209,-38.2607,-19.0375];[106.774,45.4811,18.3966];[50.1167,46.2017,-37.6482];[25.1423,0.415321,39.4749];[108.105,48.5004,-37.0666];[63.1234,24.728,44.2709];[87.5835,28.6751,51.8982];[37.299,51.1891,6.17315];[149.347,-0.671173,6.30821];[150.261,35.9575,37.6966];[95.1196,18.8641,59.436];[149.736,-21.055,44.9171];[94.2651,16.5325,31.1188]
[124.067,35.3892,-28.4659];[96.7006,-3.5323,-39.9654];[127.278,43.8103,44.7626];[106.306,-10.5021,13.4377];[95.5038,17.4722,4.62679];[23.7347,9.48258,-56.0444];[112.146,2.17808,39.9131];[82.4079,-46.4822,-1.2228];[81.6558,-54.18,37.7222];[61.5453,16.5188,-5.74531];[23.0371,-10.4307,-30.3561];[65.0826,-57.9052,26.1116];[91.7954,37.5536,9.92187];[71.4788,-2.71663,59.4198];[9.39572,-51.0887,16.892];[95.5648,-33.2877,-33.6255]
[100.839,50.8215,28.5526];[74.0564,-7.37259,42.0704];[152.426,53.8693,47.8903];[122.722,-19.9717,4.4091];[35.0618,-2.69386,53.9784];[74.587,46.1181,56.0732];[29.4025,-5.03532,33.6269];[122.632,48.5738,-29.0898];[121.858,55.6206,-20.1785];[64.3806,7.29414,6.53378];[99.5467,-37.0767,-2.6447];[57.6168,18.4656,49.9827];[33.7106,12.7851,43.852];[17.5644,-15.1733,-36.1197];[103.443,11.123,21.1865];[95.4145,-52.9367,7.30461]
[90.1788,-30.8849,-57.7307];[55.0146,-58.9112,50.8431];[96.2283,32.4823,46.4636];[149.324,-39.2322,-6.24221];[78.0353,35.4278,16.6811];[154.509,-41.3596,-24.8533];[141.153,-16.0766,47.9318];[119.622,-2.90332,-27.2415];[151.462,-45.3209,43.8815];[99.7111,26.24,50.9447];[29.4506,-26.1259,-39.9402];[32.4763,15.135,-38.8513];[20.2671,-32.6938,53.631];[2.2186,-40.7011,-45.6013];[73.8956,17.8254,49.8265];[16.1371,13.7072,-51.5332]
[62.9994,-0.428284,-7.60981];[46.9084,-30.7118,49.4869];[90.5863,-37.1149,-55.834];[69.095,37.6684,30.4059];[57.0213,59.7564,-55.72];[83.7677,-35.8864,19.415];[111.966,-20.6861,46.7212];[103.474,-19.0221,-53.9799];[122.672,36.3996,23.8456];[109.107,48.5025,-22.4472];[120.397,-24.248,37.1245];[30.2502,10.9333,-53.5873];[16.2327,-41.127,-30.7022];[21.7873,10.6942,-53.0337];[142.329,53.4602,-53.2773];[148.035,-3.714,-29.1637]
[93.9218,-39.7395,10.1502];[76.2167,37.8659,51.1281];[84.2436,9.87001,27.5277];[36.0377,-28.2994,16.0302];[86.108,-58.0019,51.7822];[55.6074,-35.3143,2.71544];[64.1577,-23.1398,21.5884];[103.221,-6.79934,-27.7173];[112.51,-20.053,-34.2571];[121.473,-29.0266,22.0289];[2.5884,41.4147,42.2893];[96.122,-21.4227,20.1552];[84.2928,41.76,-29.9748];[40.9965,-51.2117,1.72586];[142.37,13.3693,3.72393];[131.413,55.0748,28.4096]
