52.4304,-8.26559,-28.1455,4,58.478,-10.6921,-26.6308,4,61.055,-6.26672,-25.4695,4,64.1177,-6.06855,-22.2838,4,66.8527,-5.61609,-22.1115,4,71.8695,-7.30242,-21.2686,4,85.3984,2.39112,-20.8928,2,95.6365,-0.624002,-13.7697,2,104.857,-1.45423,-10.7138,2,114.614,-4.82505,-6.23439,2,125.978,-0.847215,0.00106969,5,135.036,-3.56854,7.24314,5,140.74,-0.627098,9.6982,5,146.545,0.835186,10.4148,5,152.379,1.04344,8.86084,5,156.035,0.827938,10.7862,5
47.4505,-8.23032,-24.1751,4,53.0346,-4.45847,-23.385,4,59.6175,-6.3283,-18.8212,4,63.0858,-4.44718,-19.118,4,66.6156,-4.62077,-17.1686,4,73.867,1.71192,-13.2897,4,83.1221,-0.733574,-6.11416,2,92.85,2.52574,-6.67232,2,101.569,0.734655,-2.54016,2,113.055,4.50093,4.44039,2,122.942,0.116427,10.9392,5,132.445,1.74093,12.089,5,138.155,2.58662,13.7231,5,142.515,2.47558,13.8124,5,147.839,2.02215,14.5196,5,152.119,2.47234,15.1061,5
45.0166,-4.25836,-20.9647,1,48.07,-4.2207,-15.9061,1,54.074,-2.43415,-14.8327,4,60.4609,-3.46919,-12.2013,4,66.8675,2.35956,-9.26212,4,72.6764,2.14198,0.790651,6,80.2723,4.03541,1.35173,6,89.1154,2.8455,3.83476,2,100.76,9.45623,8.1083,2,105.945,6.98967,18.6558,0,116.219,6.81069,16.9348,0,126.594,5.39644,17.7544,5,134.874,4.91338,16.7787,5,139.798,3.51187,18.2509,5,145.438,4.16643,17.6084,5,149.966,4.45096,19.5466,5
42.7033,-4.18365,-15.0373,1,44.9264,-2.86119,-12.2948,1,49.3238,-2.02921,-9.02692,1,57.7564,2.34684,-5.94639,4,64.0764,3.7833,3.65129,6,70.777,5.79779,5.73626,6,76.9939,5.86865,8.47326,6,89.5769,10.4957,11.4509,0,98.1707,9.7649,22.4941,0,103.493,10.3026,23.3628,0,107.711,9.94783,24.6079,0,117.217,9.80086,23.1793,3,123.201,7.3314,27.5918,3,133.899,7.87703,23.1265,5,140.758,7.2085,24.9907,5,145.774,8.29125,28.3278,5
40.4787,-3.26983,-12.4206,1,42.1649,-2.62633,-7.91421,1,45.4145,-0.173077,-4.0759,1,53.8258,3.11199,2.60762,1,61.9795,7.28997,5.80078,6,67.7568,8.14749,8.97563,6,77.0177,10.7374,11.9191,6,90.2749,11.3682,23.0323,0,97.0649,13.1456,24.3727,0,100.879,12.467,26.4627,0,105.018,12.5441,27.5729,0,109.371,11.4298,33.6605,3,117.637,12.3517,33.2228,3,123.132,12.8993,34.4758,3,134.087,13.2654,34.4957,3,140.249,12.4785,35.8746,3
37.473,-3.39636,-9.55685,1,38.4683,-1.14178,-4.31437,1,42.391,0.898527,-0.330067,1,49.6197,5.83115,1.59585,1,58.6076,9.18208,5.71341,6,65.8826,12.3523,9.86852,6,77.6801,14.6192,18.301,6,88.7893,17.4062,20.0248,0,95.4581,16.6579,24.9067,0,99.0706,16.9557,27.5636,0,103.523,15.1613,33.081,0,109.674,17.5457,34.2799,3,114.393,18.1684,36.4061,3,120.152,17.6105,39.09,3,125.996,17.4727,40.9826,3,135.542,20.3393,40.0027,3
34.109,-0.926219,-6.51156,1,36.2476,0.0346669,-3.20873,1,39.7866,3.07439,-2.00593,1,46.7349,7.44042,0.80314,1,54.9061,12.8088,3.75875,6,64.3665,16.4497,8.85137,6,76.3223,20.953,11.4288,6,86.8516,23.9519,19.2909,0,93.3226,24.1697,23.2485,0,98.1264,22.0691,28.0169,0,103.415,24.7331,30.0378,0,108.948,23.1901,35.2804,3,113.266,23.4082,37.3457,3,117.88,23.8546,39.0341,3,126.729,26.7804,41.4896,3,131.836,25.4533,45.3707,3
32.2218,-0.00531643,-7.68613,1,35.42,1.59827,-3.44595,1,39.1631,5.00426,-3.06185,1,44.8369,10.0552,-1.43275,1,54.6504,16.1019,2.45775,6,66.2454,20.9514,4.80072,6,77.878,27.0706,11.6192,6,85.4544,29.5423,17.5598,0,91.7098,28.4296,22.4837,0,98.8566,29.1007,25.1614,0,103.959,29.5703,29.7554,0,108.069,29.3159,34.3438,3,113.2,27.4104,37.8668,3,120.183,30.6076,38.3943,3,124.931,31.2573,42.1059,3,129.602,29.3547,46.3395,3
32.952,-0.175243,-6.9506,1,34.1255,1.42875,-4.03514,1,38.153,3.71756,-1.59042,1,47.9444,12.3582,-2.55843,1,56.0092,16.7838,-0.181423,6,65.9459,22.636,7.41242,6,76.0219,25.8225,13.1916,6,86.3434,28.5798,16.67,0,93.0729,29.874,21.2385,0,97.4752,29.8138,25.9631,0,102.873,27.0175,31.218,0,109.328,29.2452,33.063,3,114.455,30.4839,36.3167,3,119.485,30.0104,40.9516,3,125.566,29.5021,43.7993,3,130.365,29.9586,44.0438,3
33.9642,-1.23383,-7.4647,1,36.392,-0.129597,-3.34258,1,39.5329,2.44177,-1.02333,1,45.3507,6.38002,0.718627,1,57.1236,14.1139,2.42565,6,65.5065,16.9276,8.21518,6,76.7427,22.4687,14.4717,6,85.6987,23.0814,19.4482,0,93.0894,25.1473,21.4106,0,99.4177,23.0533,28.1921,0,103.152,22.9493,31.3003,0,107.291,21.5064,34.6311,0,114.513,25.8609,36.3214,3,120.692,25.587,40.5024,3,126.794,26.149,43.1061,3,131.264,26.495,44.5452,3
36.7589,-2.00909,-5.90135,1,38.4769,-1.07478,-3.7726,1,41.8798,0.357533,-1.42708,1,50.8326,5.42323,2.18533,1,57.1565,9.02654,7.16642,6,67.9109,13.2981,9.55772,6,78.5054,14.2834,15.609,6,86.4042,18.0687,19.7283,0,94.8516,16.0976,26.7212,0,100.174,17.538,27.8655,0,104.441,16.3313,31.5903,0,107.987,16.0773,34.5057,0,111.95,15.2826,37.5418,3,122.64,19.8535,36.9257,3,128.846,21.1232,40.911,3,133.111,21.1355,43.9198,3
40.0661,-3.17276,-14.3787,1,40.6681,-1.81531,-4.55716,1,47.4945,0.264123,-3.07928,1,52.3185,2.14074,0.0285079,1,60.7306,7.10757,3.19361,6,70.3568,8.45869,12.5976,6,79.6693,11.0037,15.2021,6,87.9959,11.1552,18.6818,0,95.4312,13.2362,20.874,0,101.341,11.8227,29.1534,0,105.892,12.3783,30.6031,0,110.086,11.8659,31.7037,0,116.625,11.7352,31.7656,3,122.825,10.7381,34.1297,3,133.083,13.8875,34.4521,3,138.917,15.1296,37.8065,3
42.1458,-5.31033,-17.6919,1,46.2707,-1.56408,-14.1897,1,50.0549,-1.47118,-5.63525,1,57.536,1.64223,-4.34932,1,63.0584,2.66543,-1.09739,6,71.0425,7.10153,2.6889,6,81.6604,6.65733,13.3598,6,90.2064,8.86945,15.2548,0,96.1812,8.96094,17.5134,0,103.776,11.4607,19.4028,0,109.184,9.12503,27.5897,0,116.984,8.91752,25.7492,3,123.664,7.80767,25.0336,3,134.021,7.37123,22.9996,5,139.845,6.76283,25.5498,5,147.092,8.79294,24.9196,5
45.8607,-5.30111,-22.8234,4,51.1086,-6.57018,-19.6566,4,55.5813,-1.23181,-15.3396,4,60.6031,-1.37011,-9.29338,4,65.5307,0.625998,-7.60514,4,72.7672,-0.561704,-5.16614,4,83.2529,6.64516,-1.44078,2,91.3373,5.54425,10.4525,2,98.7022,6.88387,11.2988,2,108.045,5.66976,13.5415,0,117.105,8.44152,15.71,0,124.04,4.95877,20.403,5,134.411,4.99663,17.1977,5,139.391,4.25629,16.983,5,145.614,3.78037,17.0095,5,150.547,3.54639,19.1594,5
51.8113,-7.86898,-25.7108,4,53.936,-6.91794,-25.4153,4,57.4617,-7.63867,-21.8496,4,62.4428,-1.61543,-17.2256,4,68.4616,-4.08843,-13.6777,4,74.7603,-0.896461,-15.5027,4,81.4769,-1.59424,-12.3435,2,92.3169,6.02002,-5.60446,2,102.478,1.95103,4.10068,2,111.95,2.62481,5.24669,2,123.521,1.12448,9.98209,5,133.185,2.72299,12.42,5,137.668,1.61718,13.933,5,143.576,2.55551,14.0374,5,147.436,2.21747,14.4157,5,151.199,2.24926,14.8111,5
53.1021,-7.887,-28.0786,4,55.4071,-8.21058,-27.1123,4,58.5182,-7.83893,-26.3491,4,63.1879,-9.96287,-22.9223,4,70.6222,-2.11361,-22.9036,4,76.264,-3.16998,-20.9694,4,80.7137,-2.20195,-21.0675,4,89.2878,-4.49041,-18.1448,2,105.072,3.78186,-12.8673,2,117.837,-3.63619,-1.46867,2,127.493,-3.77511,2.70063,5,133.999,-2.31836,7.65709,5,143.261,0.377745,9.34275,5,145.594,0.310831,10.7572,5,149.994,1.08413,11.7228,5,156.3,1.3195,10.8252,5
